…
\#Question 1

``` r
i2 <- rename(
  iris,
  sepal_length = Sepal.Length,
  sepal_width = Sepal.Width,
  petal_length = Petal.Length,
  petal_width = Petal.Width,
  species = Species
  )
i2
```

    ## # A tibble: 150 x 5
    ##    sepal_length sepal_width petal_length petal_width species
    ##           <dbl>       <dbl>        <dbl>       <dbl> <fct>  
    ##  1          5.1         3.5          1.4         0.2 setosa 
    ##  2          4.9         3            1.4         0.2 setosa 
    ##  3          4.7         3.2          1.3         0.2 setosa 
    ##  4          4.6         3.1          1.5         0.2 setosa 
    ##  5          5           3.6          1.4         0.2 setosa 
    ##  6          5.4         3.9          1.7         0.4 setosa 
    ##  7          4.6         3.4          1.4         0.3 setosa 
    ##  8          5           3.4          1.5         0.2 setosa 
    ##  9          4.4         2.9          1.4         0.2 setosa 
    ## 10          4.9         3.1          1.5         0.1 setosa 
    ## # … with 140 more rows

\#Question 2

``` r
numerical_mm <- mutate(i2,
                sepal_length = sepal_length * 10,
                sepal_width = sepal_width * 10,
                petal_length = petal_length * 10,
                petal_width = petal_width * 10
)

numerical_mm
```

    ## # A tibble: 150 x 5
    ##    sepal_length sepal_width petal_length petal_width species
    ##           <dbl>       <dbl>        <dbl>       <dbl> <fct>  
    ##  1           51          35           14           2 setosa 
    ##  2           49          30           14           2 setosa 
    ##  3           47          32           13           2 setosa 
    ##  4           46          31           15           2 setosa 
    ##  5           50          36           14           2 setosa 
    ##  6           54          39           17           4 setosa 
    ##  7           46          34           14           3 setosa 
    ##  8           50          34           15           2 setosa 
    ##  9           44          29           14           2 setosa 
    ## 10           49          31           15           1 setosa 
    ## # … with 140 more rows

\#Question 3

``` r
i3 <- mutate(i2, sepal_area = sepal_length * sepal_width,
             petal_area = petal_length * petal_width)
i3
```

    ## # A tibble: 150 x 7
    ##    sepal_length sepal_width petal_length petal_width species sepal_area
    ##           <dbl>       <dbl>        <dbl>       <dbl> <fct>        <dbl>
    ##  1          5.1         3.5          1.4         0.2 setosa        17.8
    ##  2          4.9         3            1.4         0.2 setosa        14.7
    ##  3          4.7         3.2          1.3         0.2 setosa        15.0
    ##  4          4.6         3.1          1.5         0.2 setosa        14.3
    ##  5          5           3.6          1.4         0.2 setosa        18  
    ##  6          5.4         3.9          1.7         0.4 setosa        21.1
    ##  7          4.6         3.4          1.4         0.3 setosa        15.6
    ##  8          5           3.4          1.5         0.2 setosa        17  
    ##  9          4.4         2.9          1.4         0.2 setosa        12.8
    ## 10          4.9         3.1          1.5         0.1 setosa        15.2
    ## # … with 140 more rows, and 1 more variable: petal_area <dbl>
…
